[gd_scene load_steps=5 format=2]

[ext_resource path="res://assets/art/Tiles/readygo.png" type="Texture" id=1]
[ext_resource path="res://assets/fonts/Digital_tech.otf" type="DynamicFontData" id=2]

[sub_resource type="DynamicFont" id=1]

size = 50
use_mipmaps = false
use_filter = false
font_data = ExtResource( 2 )
_sections_unfolded = [ "Font", "Settings" ]

[sub_resource type="Theme" id=2]

default_font = SubResource( 1 )
_sections_unfolded = [ "Resource" ]

[node name="Ready" type="Area2D"]

position = Vector2( -13.2202, -14.8486 )
scale = Vector2( 0.58687, 0.535982 )
input_pickable = true
gravity_vec = Vector2( 0, 1 )
gravity = 98.0
linear_damp = 0.1
angular_damp = 1.0
audio_bus_override = false
audio_bus_name = "Master"

[node name="Sprite" type="Sprite" parent="." index="0"]

scale = Vector2( 0.354079, 0.433183 )
texture = ExtResource( 1 )
_sections_unfolded = [ "Transform", "Visibility", "Z Index" ]

[node name="goText" type="RichTextLabel" parent="." index="1"]

visible = false
modulate = Color( 0.476913, 0.917969, 0.0358582, 1 )
anchor_left = 0.0
anchor_top = 0.0
anchor_right = 0.0
anchor_bottom = 0.0
margin_left = -34.0
margin_top = 96.0
margin_right = 64.0
margin_bottom = 141.0
rect_pivot_offset = Vector2( 0, 0 )
rect_clip_content = true
mouse_filter = 0
mouse_default_cursor_shape = 0
size_flags_horizontal = 1
size_flags_vertical = 1
theme = SubResource( 2 )
bbcode_enabled = false
bbcode_text = ""
visible_characters = -1
percent_visible = 1.0
meta_underlined = true
tab_size = 3
text = "GO"
scroll_active = false
scroll_following = false
selection_enabled = false
override_selected_font_color = false
_sections_unfolded = [ "Grow Direction", "Theme", "Visibility" ]

[node name="time" type="RichTextLabel" parent="." index="2"]

modulate = Color( 1, 0.0117188, 0.0117188, 1 )
anchor_left = 0.0
anchor_top = 0.0
anchor_right = 0.0
anchor_bottom = 0.0
margin_left = -15.0
margin_top = -27.0
margin_right = 16.0
margin_bottom = 18.0
rect_pivot_offset = Vector2( 0, 0 )
rect_clip_content = true
mouse_filter = 0
mouse_default_cursor_shape = 0
size_flags_horizontal = 1
size_flags_vertical = 1
theme = SubResource( 2 )
bbcode_enabled = false
bbcode_text = ""
visible_characters = -1
percent_visible = 1.0
meta_underlined = true
tab_size = 3
text = "3"
scroll_active = false
scroll_following = false
selection_enabled = false
override_selected_font_color = false
_sections_unfolded = [ "Theme", "Visibility" ]

[node name="timeLabel" type="RichTextLabel" parent="." index="3"]

anchor_left = 0.0
anchor_top = 0.0
anchor_right = 0.0
anchor_bottom = 0.0
margin_left = -73.0
margin_top = -140.0
margin_right = 86.0
margin_bottom = -92.0
rect_pivot_offset = Vector2( 0, 0 )
rect_clip_content = true
mouse_filter = 0
mouse_default_cursor_shape = 0
size_flags_horizontal = 1
size_flags_vertical = 1
theme = SubResource( 2 )
bbcode_enabled = false
bbcode_text = ""
visible_characters = -1
percent_visible = 1.0
meta_underlined = true
tab_size = 3
text = "Ready"
scroll_active = false
scroll_following = false
selection_enabled = false
override_selected_font_color = false
_sections_unfolded = [ "Theme" ]


