,en,es
KEY_SCORE,Score,Puntos
KEY_LEVEL,Level,Nivel
KEY_TIME,Time,Tiempo
KEY_NEWGAME,New Game,Nuevo
KEY_CONTINUE,Continue,Continuar
KEY_EXIT,Exit,Salir
CUT1_1,Bubbles have escaped from La Linea,Las Pompas han huido de La Línea
CUT1_2,Wind is blowing to the west,El viento va hacia el oeste
CUT1_3,Los Barrios seems a good point to intercept them,Los Barrios parece un buen destino
CUT2_1,Bubbles escaped again...,Las pompas han vuelto a escapar...
CUT2_2,This time wind seems to blow to south,Esta vez el viento sopla hacia el sur
CUT2_3,Tarifa seems our best option now,Tarifa parece nuestra mejor baza ahora
CUT3_1,All this wind made bubbles run away,Esta ventolera ha dispersado las pompas
CUT3_2,Wind currents are following the coast line,Las corrientes de aire siguen la costa
CUT3_3,Los Caños will be our next destination,Los Caños será nuestro próximo destino
CUT4_1,Trafalgar Lighthouse is impressive,El Faro de Trafalgar es impresionante
CUT4_2,But I must move on and beat the bubbles,Pero debo seguir y acabar con las pompas
CUT4_3,"Cadiz, here we go!!!","Cádiz, ¡¡¡Allá vamos!!!"
CUT5_1,Somehow Bubbles did not stop here,No han parado en Cádiz
CUT5_2,They are heading to Rota...,Parecen ir hacia Rota
CUT5_3,So let´s go!!!,¡¡¡A por ellas!!!
CUT6_1,What is this Aircraft doing here?,¿Que hace un avion aquí?
CUT6_2,Is the NAVY involved in this?,¿Estará la Armada involucrada en esto?
CUT6_3,"Anyway, let´s get rid of them!!!","Da igual,¡¡¡Vamos a por ellos!!!"
CUT7_1,Cadiz zone is cleared now,La Zona de Cádiz está limpia
CUT7_2,I have the feeling that this is not over yet,Pero ésto aún no ha acabado
CUT7_3,What will be next?,¡¡¡Estoy lista!!!
LGS_1,Select your language,Elige tu idioma
LGS_2,Accept,Aceptar
KEY_OPTIONS,Options,Opciones
KEY_LANGUAGE,Language,Idioma
KEY_BACK,Back,Volver
KEY_FULLSCREEN,Full Screen,Pantalla Completa
KEY_BORDERLESS,Borderless,Ventana sin marcos
KEY_RESOLUTION,Screen Size,Resolución
KEY_APPLY,Apply,Aplicar
KEY_GRAPHICS,Graphics Settings,Ajustes Gráficos
KEY_PLAYERSELECT,Select Player,Escoger Jugador
KEY_PLAY,Play,Jugar
KEY_HELP,Help,Ayuda
KEY_DIFFICULTY,Difficulty,Dificultad
KEY_LIVES,Lives,Vidas
KEY_HOWTO,How To Play,Controles
KEY_MOVE,Movement,Movimiento
KEY_SHOT,Shot,Disparar
KEY_PAUSE,Pause,Pausa
KEY_ACCEPT,Accept,Aceptar
DEMO_HEADER,Buy the complete Game!!!,¡¡¡Compra el juego completo!!!
DEMO_1,More challenges are waiting for you,Más desafíos te esperan
DEMO_2,"5 Zones in Total, 30 Levels and 1 Zone Mega Boss","5 zonas en Total, 30 niveles y un Mega Jefe de Zona"
DEMO_3,"Wind ripples, Vortex portals, Moving Platforms...","Remolinos de viento, Portales dimensionales, Plataformas móviles..."
DEMO_4,And much more FUN!!!!,¡¡¡Y mucha más diversión!!!
